<?xml version="1.0" encoding="utf-8"?>
<!-- Generator: Adobe Illustrator 18.0.0, SVG Export Plug-In . SVG Version: 6.00 Build 0)  -->
<!DOCTYPE svg PUBLIC "-//W3C//DTD SVG 1.1//EN" "http://www.w3.org/Graphics/SVG/1.1/DTD/svg11.dtd">
<svg version="1.1"
	 id="Layer_1" xmlns:svg="http://www.w3.org/2000/svg" xmlns:rdf="http://www.w3.org/1999/02/22-rdf-syntax-ns#" xmlns:sodipodi="http://sodipodi.sourceforge.net/DTD/sodipodi-0.dtd" xmlns:inkscape="http://www.inkscape.org/namespaces/inkscape" xmlns:cc="http://creativecommons.org/ns#" xmlns:dc="http://purl.org/dc/elements/1.1/"
	 xmlns="http://www.w3.org/2000/svg" xmlns:xlink="http://www.w3.org/1999/xlink" x="0px" y="0px" viewBox="-9.3 3 108.6 84"
	 enable-background="new -9.3 3 108.6 84" xml:space="preserve">
<g>
	<path fill="#00E086" d="M87.4,28.3l-1.1-7c-0.1-0.5-0.8-0.8-1.6-0.7l-23,3.4c-0.8,0.1-1.4,0.6-1.3,1.1l1.1,7
		c0.1,0.5,0.8,0.8,1.6,0.7l23-3.4C86.9,29.3,87.5,28.8,87.4,28.3z"/>
	<path fill="#00E086" d="M91.4,17.5c-3,0.9-4.6,4.1-3.7,7c0.9,3,4.1,4.6,7,3.7c3-0.9,4.6-4.1,3.7-7C97.5,18.2,94.3,16.6,91.4,17.5
		L91.4,17.5z"/>
	<path fill="#00E086" d="M87,27.6c0.4,0.5,0.4,1.2-0.1,1.6L79.7,36l0,0c-0.8,0.7-1.9,0.6-2.6-0.1c-0.7-0.7-0.7-1.9,0.1-2.6
		c0,0,0,0,0,0l7.2-6.8c0.5-0.4,1.2-0.4,1.6,0.1L87,27.6L87,27.6z"/>
	<path fill="#00E086" d="M77.4,33.5c0.8-0.6,1.9-0.6,2.6,0.2c0,0,0,0,0,0.1l6.2,7.4c0.4,0.5,0.3,1.2-0.1,1.6l-1.1,1
		c-0.5,0.4-1.2,0.3-1.6-0.1l-6.2-7.4c0,0,0,0,0-0.1C76.5,35.3,76.6,34.1,77.4,33.5L77.4,33.5z"/>
	<path fill="#00E086" d="M64.4,27.6c0.4,0.5,0.4,1.2-0.1,1.6l-7.1,6.6l0,0c-1.2,1.1-3.1,1.1-4.2-0.2c-1.1-1.2-1-3.1,0.2-4.2
		c0,0,0,0,0,0l7.1-6.6c0.5-0.4,1.2-0.4,1.6,0.1C61.9,24.9,64.4,27.6,64.4,27.6z"/>
	<path fill="#00E086" d="M57.7,34.3c-0.3,1.6-1.9,2.7-3.5,2.4l-14.2-2.8c-0.6-0.1-1-0.7-0.9-1.3l0.7-3.7c0.1-0.6,0.7-1,1.3-0.9
		l14.2,2.8C56.9,31.1,58,32.7,57.7,34.3z"/>
	<path fill="#00E086" d="M61.9,28.4c0.5-0.3,1.2-0.2,1.6,0.3l5.3,8.1l0,0c0.9,1.4,0.5,3.2-0.8,4.2c-1.4,0.9-3.2,0.5-4.2-0.9
		c0,0,0,0,0,0L58.5,32c-0.3-0.5-0.2-1.2,0.3-1.6L61.9,28.4L61.9,28.4z"/>
	<path fill="#00E086" d="M68.1,36.2c1.3,1,1.6,2.9,0.6,4.2l-8.5,11.7c-0.4,0.5-1.1,0.6-1.6,0.2l-3-2.2c-0.5-0.4-0.6-1.1-0.2-1.6
		l8.5-11.7C64.9,35.5,66.8,35.2,68.1,36.2z"/>
	<path fill="#00E086" d="M77.2,13.2c0.8-0.6,1.9-0.6,2.6,0.2c0,0,0,0,0,0.1l6.2,7.4c0.4,0.5,0.3,1.2-0.1,1.6l-1.1,1
		c-0.5,0.4-1.2,0.3-1.6-0.1L77,15.8c0,0,0,0,0-0.1C76.3,15,76.4,13.9,77.2,13.2L77.2,13.2z"/>
	<path fill="#00E086" d="M73.9,3.7c0.6-0.3,1.2,0,1.5,0.5l4.4,8.9l0,0c0.4,0.9,0,2-0.9,2.5c-0.9,0.4-2,0.1-2.5-0.8c0,0,0,0,0,0
		L72,5.8c-0.3-0.6,0-1.2,0.5-1.5C72.5,4.3,73.9,3.7,73.9,3.7z"/>
	<path fill="#00E086" d="M-6.2,42l-0.7-0.5c4.3-6.2,12.8-8,19.4-4c2,1.2,3.6,2.9,4.8,4.8l5.8-3.2l0.3-2.1c-0.2-0.1-0.3-0.1-0.4-0.2
		c-0.7-0.4-1.8-4.2-0.6-5.1c0.5-0.4,1.4,0.8,2.7,2c0.3,0.3,1.3,0.9,1.9,1.2c1.5,0.7,2.9,1.1,2.7,1.9c-0.2,0.9-2.8,0.9-4.7,0.6
		l-0.1,1.1l20,12.2l0.4-2l0.2,0l0.6-3.1l0,0l0,0c0.4,0.1,1.5,0.2,2-0.2c0.1-0.1,0.2-0.2,0.2-0.6c0-0.7-2.5-2.2-5.3-3.3l0.4-1.1
		c1.4,0.5,6.1,2.5,6.1,4.4c0,0.6-0.3,1.2-0.7,1.5c-0.5,0.4-1.2,0.5-1.8,0.5l-0.4,2.1l0.2,0l-2,9.5c1.8,0.3,3.6,0.9,5.2,1.9
		c0.6,0.4,1.2,0.8,1.8,1.3l-0.5,0.6c5.1,4.3,6.5,11.7,2.9,17.6c-3.9,6.4-12.3,8.5-18.8,4.6c-4.8-2.9-7.2-8.4-6.4-13.6l-0.8-0.1
		c0.3-1.9,0.9-3.7,2-5.4c2.8-4.7,7.9-7.2,13-6.9l0.4-2.1L25,61.8c0.1,0.8-0.1,1.6-0.5,2.3c-1.1,1.8-3.5,2.4-5.4,1.3
		c-0.1-0.1-0.3-0.2-0.4-0.3L17,66.9l0.8,0.5l-0.8,1.4l-3-1.8l0.8-1.4l1.1,0.7l2-1.9c-0.8-1.2-0.9-2.7-0.2-4l-2.2-1.7
		C11.2,63.7,3.7,65-2.1,61.5c-6.4-3.9-8.5-12.3-4.6-18.8C-6.5,42.5-6.3,42.2-6.2,42C-6.1,42-6.1,42-6.2,42L-6.2,42z M33,66.9
		c-3.2,5.3-1.6,12.2,3.7,15.4c5.3,3.2,12.2,1.5,15.4-3.7c3.2-5.3,1.6-12.2-3.7-15.4c-1.4-0.9-2.9-1.4-4.4-1.6L42.9,67l0.1,4
		c0.2,0,0.4,0.1,0.5,0.2c0.9,0.5,1.1,1.7,0.6,2.5c-0.5,0.9-1.7,1.1-2.5,0.6c-0.9-0.5-1.1-1.7-0.6-2.5c0.2-0.3,0.5-0.6,0.8-0.7
		l-0.1-4.1l1.1-5.4C39,61.5,35.2,63.4,33,66.9L33,66.9z M22.4,58.5c0.3,0.1,0.5,0.2,0.8,0.4c0.1,0.1,0.2,0.1,0.3,0.2l1.9-1.9
		l-0.8-0.5l0.8-1.4l3,1.8l-0.8,1.4l-1-0.6l-2.2,2.1c0.1,0.1,0.2,0.2,0.2,0.4l19.6-5.8l0.4-2.1L24.7,40.2L22.4,58.5L22.4,58.5z
		 M16.8,58.1l1.6,1.2c0.7-0.6,1.5-1,2.4-1.1L23,40.5l-5.1,2.8c2.2,4.3,2.1,9.6-0.6,14C17.2,57.6,17,57.9,16.8,58.1L16.8,58.1z
		 M14.6,55.7c2.1-3.4,2.1-7.4,0.5-10.7l-8,4.4c0.1,0.4,0.1,0.8-0.1,1.2l7.3,5.6C14.4,56,14.5,55.8,14.6,55.7L14.6,55.7z M-0.8,59.4
		c4.8,2.9,10.9,1.8,14.4-2.3l-7.3-5.6c-0.7,0.5-1.6,0.6-2.4,0.1c-1-0.6-1.3-1.9-0.7-2.9c0.6-1,1.9-1.3,2.9-0.7
		c0.1,0.1,0.3,0.2,0.4,0.3l8-4.4c-0.9-1.4-2.1-2.7-3.7-3.6C5.6,37-1.3,38.7-4.6,44C-7.8,49.3-6.1,56.2-0.8,59.4L-0.8,59.4z"/>
	<path fill="#00E086" d="M55.5,81.4c-2.6,0.8-2.8,0.2-3.7,2.3c-0.5,0.9-0.4,2.1-0.2,2.8h7.9C60,84,57.9,81.4,55.5,81.4z"/>
	<path fill="#00E086" d="M32.7,16.9h1.8h0l0.6,0l0.1-1l-0.6-0.1h0h-1.8L32.7,16.9z M30.6,16L30.6,16l-1.2,0.2l0.1,1l1.1-0.2v0
		l1.3-0.1l-0.1-1L30.6,16z M35.9,17l0.5,0.1h0l1.8,0.3l0.2-1l-1.8-0.3h0h0L36,16L35.9,17z M26.8,16.7L26.8,16.7l-0.6,0.2l0.3,1
		l0.6-0.2h0l1.7-0.3l-0.2-1L26.8,16.7z M39.1,17.4l1.5,0.3v0l0.9,0.3l0.3-1l-0.9-0.3h0l-1.5-0.3L39.1,17.4z M25,17.2L25,17.2
		l-1.7,0.6l0,0L23.1,18l0.4,0.9l0.2-0.1h0l1.6-0.6h0l0.3-0.1l-0.3-1L25,17.2z M42.2,18.2l0.4,0.1h0l1.9,0.6l0.3-1l-1.9-0.6h0
		l-0.4-0.1L42.2,18.2z M21.6,18.6L21.6,18.6L21.6,18.6l-1.5,0.8l0.5,0.9l1.4-0.8h0l0.7-0.3l-0.4-0.9L21.6,18.6z M45.3,19.2l1.6,0.6
		l0.7,0.3l0.4-0.9l-0.7-0.3v0h0l-1.6-0.6L45.3,19.2z M48.2,20.5l0.7,0.3v0l1.4,0.8l0.5-0.9l-1.4-0.8h0l-0.8-0.3L48.2,20.5z
		 M18.4,20.6L18.4,20.6l-1,0.8l0.6,0.8l1-0.8l0,0l1-0.6l-0.6-0.8L18.4,20.6z M51.3,21.5l-0.3,0.4h0l2.1,1.2l0.5-0.9L51.6,21h0
		L51.3,21.5z M15.6,23L15.6,23L15,23.7l0.8,0.7l0.5-0.6l1.1-1.1l-0.7-0.7L15.6,23z M53.8,23.6l1.6,1l0.5-0.9l-1.6-1L53.8,23.6z
		 M14.3,24.4L14.3,24.4L13.1,26v0l-0.2,0.2l0.8,0.6l0.2-0.2v0l1.1-1.4l0,0l0.1-0.2l-0.7-0.7L14.3,24.4z M12,27.6L12,27.6L12,27.6
		L11.2,29l0.9,0.5l0.8-1.4l0,0l0.4-0.7l-0.8-0.6L12,27.6z M10.1,31.3L10.1,31.3L9.8,32l1,0.4l0.3-0.7l0,0l0.7-1.5l-0.9-0.4
		L10.1,31.3z M9.3,33.2L9.3,33.2l-0.6,1.9l1,0.3l0.6-1.8l0.2-0.4l-1-0.4L9.3,33.2z M8,37.6L8,37.6l-0.1,0.8l1,0.2L9,37.8h0l0.4-1.6
		l-1-0.3L8,37.6z M7.6,39.9L7.6,39.9l-0.2,1.7l1,0.2l0.2-1.6v0l0.1-0.7l-1-0.2L7.6,39.9z M7.1,44.8l1,0.1l0.2-2.4l-1-0.1L7.1,44.8z"
		/>
</g>
</svg>
